%YAML 1.1
%TAG !u! tag:unity3d.com,2011:
--- !u!29 &1
OcclusionCullingSettings:
  m_ObjectHideFlags: 0
  serializedVersion: 2
  m_OcclusionBakeSettings:
    smallestOccluder: 5
    smallestHole: 0.25
    backfaceThreshold: 100
  m_SceneGUID: 00000000000000000000000000000000
  m_OcclusionCullingData: {fileID: 0}
--- !u!104 &2
RenderSettings:
  m_ObjectHideFlags: 0
  serializedVersion: 8
  m_Fog: 0
  m_FogColor: {r: 0.5, g: 0.5, b: 0.5, a: 1}
  m_FogMode: 3
  m_FogDensity: 0.01
  m_LinearFogStart: 0
  m_LinearFogEnd: 300
  m_AmbientSkyColor: {r: 0.2, g: 0.2, b: 0.2, a: 1}
  m_AmbientEquatorColor: {r: 0.2, g: 0.2, b: 0.2, a: 1}
  m_AmbientGroundColor: {r: 0.2, g: 0.2, b: 0.2, a: 1}
  m_AmbientIntensity: 1
  m_AmbientMode: 3
  m_SubtractiveShadowColor: {r: 0.42, g: 0.478, b: 0.627, a: 1}
  m_SkyboxMaterial: {fileID: 0}
  m_HaloStrength: 0.5
  m_FlareStrength: 1
  m_FlareFadeSpeed: 3
  m_HaloTexture: {fileID: 0}
  m_SpotCookie: {fileID: 10001, guid: 0000000000000000e000000000000000, type: 0}
  m_DefaultReflectionMode: 0
  m_DefaultReflectionResolution: 128
  m_ReflectionBounces: 1
  m_ReflectionIntensity: 1
  m_CustomReflection: {fileID: 0}
  m_Sun: {fileID: 0}
  m_IndirectSpecularColor: {r: 0, g: 0, b: 0, a: 1}
--- !u!157 &4
LightmapSettings:
  m_ObjectHideFlags: 0
  serializedVersion: 11
  m_GIWorkflowMode: 1
  m_GISettings:
    serializedVersion: 2
    m_BounceScale: 1
    m_IndirectOutputScale: 1
    m_AlbedoBoost: 1
    m_TemporalCoherenceThreshold: 1
    m_EnvironmentLightingMode: 0
    m_EnableBakedLightmaps: 1
    m_EnableRealtimeLightmaps: 0
  m_LightmapEditorSettings:
    serializedVersion: 9
    m_Resolution: 1
    m_BakeResolution: 50
    m_TextureWidth: 1024
    m_TextureHeight: 1024
    m_AO: 0
    m_AOMaxDistance: 1
    m_CompAOExponent: 0
    m_CompAOExponentDirect: 0
    m_Padding: 2
    m_LightmapParameters: {fileID: 0}
    m_LightmapsBakeMode: 1
    m_TextureCompression: 0
    m_FinalGather: 0
    m_FinalGatherFiltering: 1
    m_FinalGatherRayCount: 1024
    m_ReflectionCompression: 2
    m_MixedBakeMode: 1
    m_BakeBackend: 0
    m_PVRSampling: 1
    m_PVRDirectSampleCount: 32
    m_PVRSampleCount: 500
    m_PVRBounces: 2
    m_PVRFilterTypeDirect: 0
    m_PVRFilterTypeIndirect: 0
    m_PVRFilterTypeAO: 0
    m_PVRFilteringMode: 0
    m_PVRCulling: 1
    m_PVRFilteringGaussRadiusDirect: 1
    m_PVRFilteringGaussRadiusIndirect: 5
    m_PVRFilteringGaussRadiusAO: 2
    m_PVRFilteringAtrousPositionSigmaDirect: 0.5
    m_PVRFilteringAtrousPositionSigmaIndirect: 2
    m_PVRFilteringAtrousPositionSigmaAO: 1
    m_ShowResolutionOverlay: 1
  m_LightingDataAsset: {fileID: 0}
  m_UseShadowmask: 0
--- !u!196 &5
NavMeshSettings:
  serializedVersion: 2
  m_ObjectHideFlags: 0
  m_BuildSettings:
    serializedVersion: 2
    agentTypeID: 0
    agentRadius: 0.5
    agentHeight: 2
    agentSlope: 45
    agentClimb: 0.4
    ledgeDropHeight: 0
    maxJumpAcrossDistance: 0
    minRegionArea: 2
    manualCellSize: 0
    cellSize: 0.16666666
    manualTileSize: 0
    tileSize: 256
    accuratePlacement: 0
    debug:
      m_Flags: 0
  m_NavMeshData: {fileID: 0}
--- !u!1 &357578981
GameObject:
  m_ObjectHideFlags: 0
  m_PrefabParentObject: {fileID: 0}
  m_PrefabInternal: {fileID: 0}
  serializedVersion: 5
  m_Component:
  - component: {fileID: 357578986}
  - component: {fileID: 357578985}
  - component: {fileID: 357578984}
  - component: {fileID: 357578983}
  m_Layer: 0
  m_Name: CameraRight
  m_TagString: Untagged
  m_Icon: {fileID: 0}
  m_NavMeshLayer: 0
  m_StaticEditorFlags: 0
  m_IsActive: 1
--- !u!92 &357578983
Behaviour:
  m_ObjectHideFlags: 0
  m_PrefabParentObject: {fileID: 0}
  m_PrefabInternal: {fileID: 0}
  m_GameObject: {fileID: 357578981}
  m_Enabled: 1
--- !u!124 &357578984
Behaviour:
  m_ObjectHideFlags: 0
  m_PrefabParentObject: {fileID: 0}
  m_PrefabInternal: {fileID: 0}
  m_GameObject: {fileID: 357578981}
  m_Enabled: 1
--- !u!20 &357578985
Camera:
  m_ObjectHideFlags: 0
  m_PrefabParentObject: {fileID: 0}
  m_PrefabInternal: {fileID: 0}
  m_GameObject: {fileID: 357578981}
  m_Enabled: 1
  serializedVersion: 2
  m_ClearFlags: 1
  m_BackGroundColor: {r: 0.19215687, g: 0.3019608, b: 0.4745098, a: 0.019607844}
  m_NormalizedViewPortRect:
    serializedVersion: 2
    x: 0
    y: 0
    width: 1
    height: 1
  near clip plane: 0.3
  far clip plane: 1000
  field of view: 60
  orthographic: 0
  orthographic size: 5
  m_Depth: 0
  m_CullingMask:
    serializedVersion: 2
    m_Bits: 1024
  m_RenderingPath: -1
  m_TargetTexture: {fileID: 0}
  m_TargetDisplay: 0
  m_TargetEye: 3
  m_HDR: 0
  m_AllowMSAA: 1
  m_AllowDynamicResolution: 0
  m_ForceIntoRT: 0
  m_OcclusionCulling: 1
  m_StereoConvergence: 10
  m_StereoSeparation: 0.022
--- !u!4 &357578986
Transform:
  m_ObjectHideFlags: 0
  m_PrefabParentObject: {fileID: 0}
  m_PrefabInternal: {fileID: 0}
  m_GameObject: {fileID: 357578981}
  m_LocalRotation: {x: 0, y: 0, z: 0, w: 1}
  m_LocalPosition: {x: 0, y: 0, z: 0}
  m_LocalScale: {x: 1, y: 1, z: 1}
  m_Children: []
  m_Father: {fileID: 0}
  m_RootOrder: 1
  m_LocalEulerAnglesHint: {x: 0, y: 0, z: 0}
--- !u!1 &485533580
GameObject:
  m_ObjectHideFlags: 0
  m_PrefabParentObject: {fileID: 1000013088287728, guid: e20295937dcf89f4187b8a37a845bf81,
    type: 2}
  m_PrefabInternal: {fileID: 1652970870}
  serializedVersion: 5
  m_Component:
  - component: {fileID: 485533581}
  m_Layer: 9
  m_Name: Cubemap_Left
  m_TagString: Untagged
  m_Icon: {fileID: 0}
  m_NavMeshLayer: 0
  m_StaticEditorFlags: 0
  m_IsActive: 1
--- !u!4 &485533581
Transform:
  m_ObjectHideFlags: 0
  m_PrefabParentObject: {fileID: 4000013629204522, guid: e20295937dcf89f4187b8a37a845bf81,
    type: 2}
  m_PrefabInternal: {fileID: 1652970870}
  m_GameObject: {fileID: 485533580}
  m_LocalRotation: {x: 0, y: 0, z: 0, w: 1}
  m_LocalPosition: {x: 0, y: 0, z: 0}
  m_LocalScale: {x: 1, y: 1, z: 1}
  m_Children:
  - {fileID: 1652970884}
  - {fileID: 1652970883}
  - {fileID: 1652970882}
  - {fileID: 1652970881}
  - {fileID: 1652970880}
  - {fileID: 1652970879}
  m_Father: {fileID: 0}
  m_RootOrder: 2
  m_LocalEulerAnglesHint: {x: 0, y: 0, z: 0}
--- !u!1001 &1457604494
Prefab:
  m_ObjectHideFlags: 0
  serializedVersion: 2
  m_Modification:
    m_TransformParent: {fileID: 0}
    m_Modifications:
    - target: {fileID: 4000013629204522, guid: e20295937dcf89f4187b8a37a845bf81, type: 2}
      propertyPath: m_LocalPosition.x
      value: 0
      objectReference: {fileID: 0}
    - target: {fileID: 4000013629204522, guid: e20295937dcf89f4187b8a37a845bf81, type: 2}
      propertyPath: m_LocalPosition.y
      value: 0
      objectReference: {fileID: 0}
    - target: {fileID: 4000013629204522, guid: e20295937dcf89f4187b8a37a845bf81, type: 2}
      propertyPath: m_LocalPosition.z
      value: 0
      objectReference: {fileID: 0}
    - target: {fileID: 4000013629204522, guid: e20295937dcf89f4187b8a37a845bf81, type: 2}
      propertyPath: m_LocalRotation.x
      value: 0
      objectReference: {fileID: 0}
    - target: {fileID: 4000013629204522, guid: e20295937dcf89f4187b8a37a845bf81, type: 2}
      propertyPath: m_LocalRotation.y
      value: 0
      objectReference: {fileID: 0}
    - target: {fileID: 4000013629204522, guid: e20295937dcf89f4187b8a37a845bf81, type: 2}
      propertyPath: m_LocalRotation.z
      value: 0
      objectReference: {fileID: 0}
    - target: {fileID: 4000013629204522, guid: e20295937dcf89f4187b8a37a845bf81, type: 2}
      propertyPath: m_LocalRotation.w
      value: 1
      objectReference: {fileID: 0}
    - target: {fileID: 4000013629204522, guid: e20295937dcf89f4187b8a37a845bf81, type: 2}
      propertyPath: m_RootOrder
      value: 3
      objectReference: {fileID: 0}
    - target: {fileID: 114000014017673422, guid: e20295937dcf89f4187b8a37a845bf81,
        type: 2}
      propertyPath: m_strFileName
      value: EasyMovieTexture.mp4
      objectReference: {fileID: 0}
    - target: {fileID: 1000013088287728, guid: e20295937dcf89f4187b8a37a845bf81, type: 2}
      propertyPath: m_Name
      value: Cubemap_Right
      objectReference: {fileID: 0}
    - target: {fileID: 1000013088287728, guid: e20295937dcf89f4187b8a37a845bf81, type: 2}
      propertyPath: m_Layer
      value: 10
      objectReference: {fileID: 0}
    - target: {fileID: 1000010997487664, guid: e20295937dcf89f4187b8a37a845bf81, type: 2}
      propertyPath: m_Layer
      value: 10
      objectReference: {fileID: 0}
    - target: {fileID: 1000014119592514, guid: e20295937dcf89f4187b8a37a845bf81, type: 2}
      propertyPath: m_Layer
      value: 10
      objectReference: {fileID: 0}
    - target: {fileID: 1000012403782342, guid: e20295937dcf89f4187b8a37a845bf81, type: 2}
      propertyPath: m_Layer
      value: 10
      objectReference: {fileID: 0}
    - target: {fileID: 1000012426281796, guid: e20295937dcf89f4187b8a37a845bf81, type: 2}
      propertyPath: m_Layer
      value: 10
      objectReference: {fileID: 0}
    - target: {fileID: 1000010767166688, guid: e20295937dcf89f4187b8a37a845bf81, type: 2}
      propertyPath: m_Layer
      value: 10
      objectReference: {fileID: 0}
    - target: {fileID: 1000011849790374, guid: e20295937dcf89f4187b8a37a845bf81, type: 2}
      propertyPath: m_Layer
      value: 10
      objectReference: {fileID: 0}
    - target: {fileID: 23000010074388434, guid: e20295937dcf89f4187b8a37a845bf81,
        type: 2}
      propertyPath: m_Materials.Array.data[0]
      value: 
      objectReference: {fileID: 2100000, guid: 82f8abefff0e749479471637213b9faf, type: 2}
    - target: {fileID: 23000012019404034, guid: e20295937dcf89f4187b8a37a845bf81,
        type: 2}
      propertyPath: m_Materials.Array.data[0]
      value: 
      objectReference: {fileID: 2100000, guid: 5394e516ac43e5c428a3a8733007d9ec, type: 2}
    - target: {fileID: 23000013099928210, guid: e20295937dcf89f4187b8a37a845bf81,
        type: 2}
      propertyPath: m_Materials.Array.data[0]
      value: 
      objectReference: {fileID: 2100000, guid: 3e6945c350359ff4ebe1d095cdd6ce54, type: 2}
    - target: {fileID: 23000010631511962, guid: e20295937dcf89f4187b8a37a845bf81,
        type: 2}
      propertyPath: m_Materials.Array.data[0]
      value: 
      objectReference: {fileID: 2100000, guid: 82aa055eb69cdf14c9f1abff59cfec84, type: 2}
    - target: {fileID: 23000011238846522, guid: e20295937dcf89f4187b8a37a845bf81,
        type: 2}
      propertyPath: m_Materials.Array.data[0]
      value: 
      objectReference: {fileID: 2100000, guid: 60b3e10d508edd54b9a30bddc83da258, type: 2}
    - target: {fileID: 23000011993042206, guid: e20295937dcf89f4187b8a37a845bf81,
        type: 2}
      propertyPath: m_Materials.Array.data[0]
      value: 
      objectReference: {fileID: 2100000, guid: 24db048646e92ab41ae9f6d7fc843d4f, type: 2}
    - target: {fileID: 1000011849790374, guid: e20295937dcf89f4187b8a37a845bf81, type: 2}
      propertyPath: m_IsActive
      value: 1
      objectReference: {fileID: 0}
    - target: {fileID: 1000010767166688, guid: e20295937dcf89f4187b8a37a845bf81, type: 2}
      propertyPath: m_IsActive
      value: 1
      objectReference: {fileID: 0}
    - target: {fileID: 1000012426281796, guid: e20295937dcf89f4187b8a37a845bf81, type: 2}
      propertyPath: m_IsActive
      value: 1
      objectReference: {fileID: 0}
    - target: {fileID: 1000012403782342, guid: e20295937dcf89f4187b8a37a845bf81, type: 2}
      propertyPath: m_IsActive
      value: 1
      objectReference: {fileID: 0}
    - target: {fileID: 1000014119592514, guid: e20295937dcf89f4187b8a37a845bf81, type: 2}
      propertyPath: m_IsActive
      value: 1
      objectReference: {fileID: 0}
    - target: {fileID: 1000010997487664, guid: e20295937dcf89f4187b8a37a845bf81, type: 2}
      propertyPath: m_IsActive
      value: 1
      objectReference: {fileID: 0}
    m_RemovedComponents:
    - {fileID: 114000014017673422, guid: e20295937dcf89f4187b8a37a845bf81, type: 2}
  m_ParentPrefab: {fileID: 100100000, guid: e20295937dcf89f4187b8a37a845bf81, type: 2}
  m_RootGameObject: {fileID: 1979831050}
  m_IsPrefabParent: 0
--- !u!1 &1457604495
GameObject:
  m_ObjectHideFlags: 0
  m_PrefabParentObject: {fileID: 1000011849790374, guid: e20295937dcf89f4187b8a37a845bf81,
    type: 2}
  m_PrefabInternal: {fileID: 1457604494}
  serializedVersion: 5
  m_Component:
  - component: {fileID: 1457604503}
  - component: {fileID: 1457604502}
  - component: {fileID: 1457604501}
  m_Layer: 10
  m_Name: Back
  m_TagString: Untagged
  m_Icon: {fileID: 0}
  m_NavMeshLayer: 0
  m_StaticEditorFlags: 0
  m_IsActive: 1
--- !u!1 &1457604496
GameObject:
  m_ObjectHideFlags: 0
  m_PrefabParentObject: {fileID: 1000010767166688, guid: e20295937dcf89f4187b8a37a845bf81,
    type: 2}
  m_PrefabInternal: {fileID: 1457604494}
  serializedVersion: 5
  m_Component:
  - component: {fileID: 1457604504}
  - component: {fileID: 1457604510}
  - component: {fileID: 1457604509}
  m_Layer: 10
  m_Name: Front
  m_TagString: Untagged
  m_Icon: {fileID: 0}
  m_NavMeshLayer: 0
  m_StaticEditorFlags: 0
  m_IsActive: 1
--- !u!1 &1457604497
GameObject:
  m_ObjectHideFlags: 0
  m_PrefabParentObject: {fileID: 1000012426281796, guid: e20295937dcf89f4187b8a37a845bf81,
    type: 2}
  m_PrefabInternal: {fileID: 1457604494}
  serializedVersion: 5
  m_Component:
  - component: {fileID: 1457604505}
  - component: {fileID: 1457604512}
  - component: {fileID: 1457604511}
  m_Layer: 10
  m_Name: Right
  m_TagString: Untagged
  m_Icon: {fileID: 0}
  m_NavMeshLayer: 0
  m_StaticEditorFlags: 0
  m_IsActive: 1
--- !u!1 &1457604498
GameObject:
  m_ObjectHideFlags: 0
  m_PrefabParentObject: {fileID: 1000012403782342, guid: e20295937dcf89f4187b8a37a845bf81,
    type: 2}
  m_PrefabInternal: {fileID: 1457604494}
  serializedVersion: 5
  m_Component:
  - component: {fileID: 1457604506}
  - component: {fileID: 1457604514}
  - component: {fileID: 1457604513}
  m_Layer: 10
  m_Name: Left
  m_TagString: Untagged
  m_Icon: {fileID: 0}
  m_NavMeshLayer: 0
  m_StaticEditorFlags: 0
  m_IsActive: 1
--- !u!1 &1457604499
GameObject:
  m_ObjectHideFlags: 0
  m_PrefabParentObject: {fileID: 1000014119592514, guid: e20295937dcf89f4187b8a37a845bf81,
    type: 2}
  m_PrefabInternal: {fileID: 1457604494}
  serializedVersion: 5
  m_Component:
  - component: {fileID: 1457604507}
  - component: {fileID: 1457604516}
  - component: {fileID: 1457604515}
  m_Layer: 10
  m_Name: Bottom
  m_TagString: Untagged
  m_Icon: {fileID: 0}
  m_NavMeshLayer: 0
  m_StaticEditorFlags: 0
  m_IsActive: 1
--- !u!1 &1457604500
GameObject:
  m_ObjectHideFlags: 0
  m_PrefabParentObject: {fileID: 1000010997487664, guid: e20295937dcf89f4187b8a37a845bf81,
    type: 2}
  m_PrefabInternal: {fileID: 1457604494}
  serializedVersion: 5
  m_Component:
  - component: {fileID: 1457604508}
  - component: {fileID: 1457604518}
  - component: {fileID: 1457604517}
  m_Layer: 10
  m_Name: Top
  m_TagString: Untagged
  m_Icon: {fileID: 0}
  m_NavMeshLayer: 0
  m_StaticEditorFlags: 0
  m_IsActive: 1
--- !u!23 &1457604501
MeshRenderer:
  m_ObjectHideFlags: 0
  m_PrefabParentObject: {fileID: 23000011993042206, guid: e20295937dcf89f4187b8a37a845bf81,
    type: 2}
  m_PrefabInternal: {fileID: 1457604494}
  m_GameObject: {fileID: 1457604495}
  m_Enabled: 1
  m_CastShadows: 1
  m_ReceiveShadows: 1
  m_DynamicOccludee: 1
  m_MotionVectors: 1
  m_LightProbeUsage: 1
  m_ReflectionProbeUsage: 1
  m_Materials:
  - {fileID: 2100000, guid: 24db048646e92ab41ae9f6d7fc843d4f, type: 2}
  m_StaticBatchInfo:
    firstSubMesh: 0
    subMeshCount: 0
  m_StaticBatchRoot: {fileID: 0}
  m_ProbeAnchor: {fileID: 0}
  m_LightProbeVolumeOverride: {fileID: 0}
  m_ScaleInLightmap: 1
  m_PreserveUVs: 0
  m_IgnoreNormalsForChartDetection: 0
  m_ImportantGI: 0
  m_StitchLightmapSeams: 0
  m_SelectedEditorRenderState: 3
  m_MinimumChartSize: 4
  m_AutoUVMaxDistance: 0.5
  m_AutoUVMaxAngle: 89
  m_LightmapParameters: {fileID: 0}
  m_SortingLayerID: 0
  m_SortingLayer: 0
  m_SortingOrder: 0
--- !u!33 &1457604502
MeshFilter:
  m_ObjectHideFlags: 0
  m_PrefabParentObject: {fileID: 33000012453629146, guid: e20295937dcf89f4187b8a37a845bf81,
    type: 2}
  m_PrefabInternal: {fileID: 1457604494}
  m_GameObject: {fileID: 1457604495}
  m_Mesh: {fileID: 10210, guid: 0000000000000000e000000000000000, type: 0}
--- !u!4 &1457604503
Transform:
  m_ObjectHideFlags: 0
  m_PrefabParentObject: {fileID: 4000012630047384, guid: e20295937dcf89f4187b8a37a845bf81,
    type: 2}
  m_PrefabInternal: {fileID: 1457604494}
  m_GameObject: {fileID: 1457604495}
  m_LocalRotation: {x: 0, y: 1, z: 0, w: 0}
  m_LocalPosition: {x: 0, y: 0, z: -499}
  m_LocalScale: {x: 1000, y: 1000, z: 1000}
  m_Children: []
  m_Father: {fileID: 1979831051}
  m_RootOrder: 5
  m_LocalEulerAnglesHint: {x: 0, y: 0, z: 0}
--- !u!4 &1457604504
Transform:
  m_ObjectHideFlags: 0
  m_PrefabParentObject: {fileID: 4000011982902760, guid: e20295937dcf89f4187b8a37a845bf81,
    type: 2}
  m_PrefabInternal: {fileID: 1457604494}
  m_GameObject: {fileID: 1457604496}
  m_LocalRotation: {x: 0, y: 0, z: 0, w: 1}
  m_LocalPosition: {x: 0, y: 0, z: 499}
  m_LocalScale: {x: 1000, y: 1000, z: 1000}
  m_Children: []
  m_Father: {fileID: 1979831051}
  m_RootOrder: 4
  m_LocalEulerAnglesHint: {x: 0, y: 0, z: 0}
--- !u!4 &1457604505
Transform:
  m_ObjectHideFlags: 0
  m_PrefabParentObject: {fileID: 4000012463577500, guid: e20295937dcf89f4187b8a37a845bf81,
    type: 2}
  m_PrefabInternal: {fileID: 1457604494}
  m_GameObject: {fileID: 1457604497}
  m_LocalRotation: {x: 0, y: 0.7071068, z: 0, w: 0.7071068}
  m_LocalPosition: {x: 499, y: 0, z: 0}
  m_LocalScale: {x: 1000, y: 1000, z: 1000}
  m_Children: []
  m_Father: {fileID: 1979831051}
  m_RootOrder: 3
  m_LocalEulerAnglesHint: {x: 0, y: 0, z: 0}
--- !u!4 &1457604506
Transform:
  m_ObjectHideFlags: 0
  m_PrefabParentObject: {fileID: 4000012357002480, guid: e20295937dcf89f4187b8a37a845bf81,
    type: 2}
  m_PrefabInternal: {fileID: 1457604494}
  m_GameObject: {fileID: 1457604498}
  m_LocalRotation: {x: 0, y: -0.7071068, z: 0, w: 0.7071068}
  m_LocalPosition: {x: -499, y: 0, z: 0}
  m_LocalScale: {x: 1000, y: 1000, z: 1000}
  m_Children: []
  m_Father: {fileID: 1979831051}
  m_RootOrder: 2
  m_LocalEulerAnglesHint: {x: 0, y: 0, z: 0}
--- !u!4 &1457604507
Transform:
  m_ObjectHideFlags: 0
  m_PrefabParentObject: {fileID: 4000012685362062, guid: e20295937dcf89f4187b8a37a845bf81,
    type: 2}
  m_PrefabInternal: {fileID: 1457604494}
  m_GameObject: {fileID: 1457604499}
  m_LocalRotation: {x: 0.7071068, y: 0, z: 0, w: 0.7071068}
  m_LocalPosition: {x: 0, y: -499, z: 0}
  m_LocalScale: {x: 1000, y: 1000, z: 1000}
  m_Children: []
  m_Father: {fileID: 1979831051}
  m_RootOrder: 1
  m_LocalEulerAnglesHint: {x: 0, y: 0, z: 0}
--- !u!4 &1457604508
Transform:
  m_ObjectHideFlags: 0
  m_PrefabParentObject: {fileID: 4000011469594028, guid: e20295937dcf89f4187b8a37a845bf81,
    type: 2}
  m_PrefabInternal: {fileID: 1457604494}
  m_GameObject: {fileID: 1457604500}
  m_LocalRotation: {x: -0.7071068, y: 0, z: 0, w: 0.7071068}
  m_LocalPosition: {x: 0, y: 499, z: 0}
  m_LocalScale: {x: 1000, y: 1000, z: 1000}
  m_Children: []
  m_Father: {fileID: 1979831051}
  m_RootOrder: 0
  m_LocalEulerAnglesHint: {x: 0, y: 0, z: 0}
--- !u!23 &1457604509
MeshRenderer:
  m_ObjectHideFlags: 0
  m_PrefabParentObject: {fileID: 23000011238846522, guid: e20295937dcf89f4187b8a37a845bf81,
    type: 2}
  m_PrefabInternal: {fileID: 1457604494}
  m_GameObject: {fileID: 1457604496}
  m_Enabled: 1
  m_CastShadows: 1
  m_ReceiveShadows: 1
  m_DynamicOccludee: 1
  m_MotionVectors: 1
  m_LightProbeUsage: 1
  m_ReflectionProbeUsage: 1
  m_Materials:
  - {fileID: 2100000, guid: 60b3e10d508edd54b9a30bddc83da258, type: 2}
  m_StaticBatchInfo:
    firstSubMesh: 0
    subMeshCount: 0
  m_StaticBatchRoot: {fileID: 0}
  m_ProbeAnchor: {fileID: 0}
  m_LightProbeVolumeOverride: {fileID: 0}
  m_ScaleInLightmap: 1
  m_PreserveUVs: 0
  m_IgnoreNormalsForChartDetection: 0
  m_ImportantGI: 0
  m_StitchLightmapSeams: 0
  m_SelectedEditorRenderState: 3
  m_MinimumChartSize: 4
  m_AutoUVMaxDistance: 0.5
  m_AutoUVMaxAngle: 89
  m_LightmapParameters: {fileID: 0}
  m_SortingLayerID: 0
  m_SortingLayer: 0
  m_SortingOrder: 0
--- !u!33 &1457604510
MeshFilter:
  m_ObjectHideFlags: 0
  m_PrefabParentObject: {fileID: 33000010803628946, guid: e20295937dcf89f4187b8a37a845bf81,
    type: 2}
  m_PrefabInternal: {fileID: 1457604494}
  m_GameObject: {fileID: 1457604496}
  m_Mesh: {fileID: 10210, guid: 0000000000000000e000000000000000, type: 0}
--- !u!23 &1457604511
MeshRenderer:
  m_ObjectHideFlags: 0
  m_PrefabParentObject: {fileID: 23000010631511962, guid: e20295937dcf89f4187b8a37a845bf81,
    type: 2}
  m_PrefabInternal: {fileID: 1457604494}
  m_GameObject: {fileID: 1457604497}
  m_Enabled: 1
  m_CastShadows: 1
  m_ReceiveShadows: 1
  m_DynamicOccludee: 1
  m_MotionVectors: 1
  m_LightProbeUsage: 1
  m_ReflectionProbeUsage: 1
  m_Materials:
  - {fileID: 2100000, guid: 82aa055eb69cdf14c9f1abff59cfec84, type: 2}
  m_StaticBatchInfo:
    firstSubMesh: 0
    subMeshCount: 0
  m_StaticBatchRoot: {fileID: 0}
  m_ProbeAnchor: {fileID: 0}
  m_LightProbeVolumeOverride: {fileID: 0}
  m_ScaleInLightmap: 1
  m_PreserveUVs: 0
  m_IgnoreNormalsForChartDetection: 0
  m_ImportantGI: 0
  m_StitchLightmapSeams: 0
  m_SelectedEditorRenderState: 3
  m_MinimumChartSize: 4
  m_AutoUVMaxDistance: 0.5
  m_AutoUVMaxAngle: 89
  m_LightmapParameters: {fileID: 0}
  m_SortingLayerID: 0
  m_SortingLayer: 0
  m_SortingOrder: 0
--- !u!33 &1457604512
MeshFilter:
  m_ObjectHideFlags: 0
  m_PrefabParentObject: {fileID: 33000013744237234, guid: e20295937dcf89f4187b8a37a845bf81,
    type: 2}
  m_PrefabInternal: {fileID: 1457604494}
  m_GameObject: {fileID: 1457604497}
  m_Mesh: {fileID: 10210, guid: 0000000000000000e000000000000000, type: 0}
--- !u!23 &1457604513
MeshRenderer:
  m_ObjectHideFlags: 0
  m_PrefabParentObject: {fileID: 23000013099928210, guid: e20295937dcf89f4187b8a37a845bf81,
    type: 2}
  m_PrefabInternal: {fileID: 1457604494}
  m_GameObject: {fileID: 1457604498}
  m_Enabled: 1
  m_CastShadows: 1
  m_ReceiveShadows: 1
  m_DynamicOccludee: 1
  m_MotionVectors: 1
  m_LightProbeUsage: 1
  m_ReflectionProbeUsage: 1
  m_Materials:
  - {fileID: 2100000, guid: 3e6945c350359ff4ebe1d095cdd6ce54, type: 2}
  m_StaticBatchInfo:
    firstSubMesh: 0
    subMeshCount: 0
  m_StaticBatchRoot: {fileID: 0}
  m_ProbeAnchor: {fileID: 0}
  m_LightProbeVolumeOverride: {fileID: 0}
  m_ScaleInLightmap: 1
  m_PreserveUVs: 0
  m_IgnoreNormalsForChartDetection: 0
  m_ImportantGI: 0
  m_StitchLightmapSeams: 0
  m_SelectedEditorRenderState: 3
  m_MinimumChartSize: 4
  m_AutoUVMaxDistance: 0.5
  m_AutoUVMaxAngle: 89
  m_LightmapParameters: {fileID: 0}
  m_SortingLayerID: 0
  m_SortingLayer: 0
  m_SortingOrder: 0
--- !u!33 &1457604514
MeshFilter:
  m_ObjectHideFlags: 0
  m_PrefabParentObject: {fileID: 33000012490991614, guid: e20295937dcf89f4187b8a37a845bf81,
    type: 2}
  m_PrefabInternal: {fileID: 1457604494}
  m_GameObject: {fileID: 1457604498}
  m_Mesh: {fileID: 10210, guid: 0000000000000000e000000000000000, type: 0}
--- !u!23 &1457604515
MeshRenderer:
  m_ObjectHideFlags: 0
  m_PrefabParentObject: {fileID: 23000012019404034, guid: e20295937dcf89f4187b8a37a845bf81,
    type: 2}
  m_PrefabInternal: {fileID: 1457604494}
  m_GameObject: {fileID: 1457604499}
  m_Enabled: 1
  m_CastShadows: 1
  m_ReceiveShadows: 1
  m_DynamicOccludee: 1
  m_MotionVectors: 1
  m_LightProbeUsage: 1
  m_ReflectionProbeUsage: 1
  m_Materials:
  - {fileID: 2100000, guid: 5394e516ac43e5c428a3a8733007d9ec, type: 2}
  m_StaticBatchInfo:
    firstSubMesh: 0
    subMeshCount: 0
  m_StaticBatchRoot: {fileID: 0}
  m_ProbeAnchor: {fileID: 0}
  m_LightProbeVolumeOverride: {fileID: 0}
  m_ScaleInLightmap: 1
  m_PreserveUVs: 0
  m_IgnoreNormalsForChartDetection: 0
  m_ImportantGI: 0
  m_StitchLightmapSeams: 0
  m_SelectedEditorRenderState: 3
  m_MinimumChartSize: 4
  m_AutoUVMaxDistance: 0.5
  m_AutoUVMaxAngle: 89
  m_LightmapParameters: {fileID: 0}
  m_SortingLayerID: 0
  m_SortingLayer: 0
  m_SortingOrder: 0
--- !u!33 &1457604516
MeshFilter:
  m_ObjectHideFlags: 0
  m_PrefabParentObject: {fileID: 33000013284011270, guid: e20295937dcf89f4187b8a37a845bf81,
    type: 2}
  m_PrefabInternal: {fileID: 1457604494}
  m_GameObject: {fileID: 1457604499}
  m_Mesh: {fileID: 10210, guid: 0000000000000000e000000000000000, type: 0}
--- !u!23 &1457604517
MeshRenderer:
  m_ObjectHideFlags: 0
  m_PrefabParentObject: {fileID: 23000010074388434, guid: e20295937dcf89f4187b8a37a845bf81,
    type: 2}
  m_PrefabInternal: {fileID: 1457604494}
  m_GameObject: {fileID: 1457604500}
  m_Enabled: 1
  m_CastShadows: 1
  m_ReceiveShadows: 1
  m_DynamicOccludee: 1
  m_MotionVectors: 1
  m_LightProbeUsage: 1
  m_ReflectionProbeUsage: 1
  m_Materials:
  - {fileID: 2100000, guid: 82f8abefff0e749479471637213b9faf, type: 2}
  m_StaticBatchInfo:
    firstSubMesh: 0
    subMeshCount: 0
  m_StaticBatchRoot: {fileID: 0}
  m_ProbeAnchor: {fileID: 0}
  m_LightProbeVolumeOverride: {fileID: 0}
  m_ScaleInLightmap: 1
  m_PreserveUVs: 0
  m_IgnoreNormalsForChartDetection: 0
  m_ImportantGI: 0
  m_StitchLightmapSeams: 0
  m_SelectedEditorRenderState: 3
  m_MinimumChartSize: 4
  m_AutoUVMaxDistance: 0.5
  m_AutoUVMaxAngle: 89
  m_LightmapParameters: {fileID: 0}
  m_SortingLayerID: 0
  m_SortingLayer: 0
  m_SortingOrder: 0
--- !u!33 &1457604518
MeshFilter:
  m_ObjectHideFlags: 0
  m_PrefabParentObject: {fileID: 33000011403583486, guid: e20295937dcf89f4187b8a37a845bf81,
    type: 2}
  m_PrefabInternal: {fileID: 1457604494}
  m_GameObject: {fileID: 1457604500}
  m_Mesh: {fileID: 10210, guid: 0000000000000000e000000000000000, type: 0}
--- !u!1 &1482323620
GameObject:
  m_ObjectHideFlags: 0
  m_PrefabParentObject: {fileID: 100000, guid: f0082db35c5d5614f9e8c63a7f86aa4e, type: 2}
  m_PrefabInternal: {fileID: 2020816282}
  serializedVersion: 5
  m_Component:
  - component: {fileID: 1482323622}
  - component: {fileID: 1482323621}
  m_Layer: 0
  m_Name: VideoManager
  m_TagString: Untagged
  m_Icon: {fileID: 0}
  m_NavMeshLayer: 0
  m_StaticEditorFlags: 0
  m_IsActive: 1
--- !u!114 &1482323621
MonoBehaviour:
  m_ObjectHideFlags: 0
  m_PrefabParentObject: {fileID: 11400000, guid: f0082db35c5d5614f9e8c63a7f86aa4e,
    type: 2}
  m_PrefabInternal: {fileID: 2020816282}
  m_GameObject: {fileID: 1482323620}
  m_Enabled: 1
  m_EditorHideFlags: 0
  m_Script: {fileID: 11500000, guid: fb521e9ace49d8546a83f420a0debd12, type: 3}
  m_Name: 
  m_EditorClassIdentifier: 
  m_strFileName: EasyMovieTexture.mp4
  m_TargetMaterial:
  - {fileID: 1457604500}
  - {fileID: 1457604499}
  - {fileID: 1457604498}
  - {fileID: 1457604497}
  - {fileID: 1457604496}
  - {fileID: 1457604495}
  - {fileID: 1652970875}
  - {fileID: 1652970876}
  - {fileID: 1652970874}
  - {fileID: 1652970873}
  - {fileID: 1652970872}
  - {fileID: 1652970871}
  m_bFullScreen: 0
  m_bSupportRockchip: 1
  m_bPC_FastMode: 0
  m_shaderYUV: {fileID: 4800000, guid: 54493a551624d5542824b34bfa16722c, type: 3}
  m_ScaleValue: 0
  m_objResize:
  - {fileID: 0}
  m_bLoop: 1
  m_bAutoPlay: 1
--- !u!4 &1482323622
Transform:
  m_ObjectHideFlags: 0
  m_PrefabParentObject: {fileID: 400000, guid: f0082db35c5d5614f9e8c63a7f86aa4e, type: 2}
  m_PrefabInternal: {fileID: 2020816282}
  m_GameObject: {fileID: 1482323620}
  m_LocalRotation: {x: 0, y: 0, z: 0, w: 1}
  m_LocalPosition: {x: 0, y: 5.75, z: 6}
  m_LocalScale: {x: 8, y: 8, z: 8}
  m_Children: []
  m_Father: {fileID: 0}
  m_RootOrder: 4
  m_LocalEulerAnglesHint: {x: 0, y: 0, z: 0}
--- !u!1001 &1652970870
Prefab:
  m_ObjectHideFlags: 0
  serializedVersion: 2
  m_Modification:
    m_TransformParent: {fileID: 0}
    m_Modifications:
    - target: {fileID: 4000013629204522, guid: e20295937dcf89f4187b8a37a845bf81, type: 2}
      propertyPath: m_LocalPosition.x
      value: 0
      objectReference: {fileID: 0}
    - target: {fileID: 4000013629204522, guid: e20295937dcf89f4187b8a37a845bf81, type: 2}
      propertyPath: m_LocalPosition.y
      value: 0
      objectReference: {fileID: 0}
    - target: {fileID: 4000013629204522, guid: e20295937dcf89f4187b8a37a845bf81, type: 2}
      propertyPath: m_LocalPosition.z
      value: 0
      objectReference: {fileID: 0}
    - target: {fileID: 4000013629204522, guid: e20295937dcf89f4187b8a37a845bf81, type: 2}
      propertyPath: m_LocalRotation.x
      value: 0
      objectReference: {fileID: 0}
    - target: {fileID: 4000013629204522, guid: e20295937dcf89f4187b8a37a845bf81, type: 2}
      propertyPath: m_LocalRotation.y
      value: 0
      objectReference: {fileID: 0}
    - target: {fileID: 4000013629204522, guid: e20295937dcf89f4187b8a37a845bf81, type: 2}
      propertyPath: m_LocalRotation.z
      value: 0
      objectReference: {fileID: 0}
    - target: {fileID: 4000013629204522, guid: e20295937dcf89f4187b8a37a845bf81, type: 2}
      propertyPath: m_LocalRotation.w
      value: 1
      objectReference: {fileID: 0}
    - target: {fileID: 4000013629204522, guid: e20295937dcf89f4187b8a37a845bf81, type: 2}
      propertyPath: m_RootOrder
      value: 2
      objectReference: {fileID: 0}
    - target: {fileID: 114000014017673422, guid: e20295937dcf89f4187b8a37a845bf81,
        type: 2}
      propertyPath: m_strFileName
      value: invasion_cubemap
      objectReference: {fileID: 0}
    - target: {fileID: 1000013088287728, guid: e20295937dcf89f4187b8a37a845bf81, type: 2}
      propertyPath: m_Name
      value: Cubemap_Left
      objectReference: {fileID: 0}
    - target: {fileID: 1000011849790374, guid: e20295937dcf89f4187b8a37a845bf81, type: 2}
      propertyPath: m_Layer
      value: 9
      objectReference: {fileID: 0}
    - target: {fileID: 1000010767166688, guid: e20295937dcf89f4187b8a37a845bf81, type: 2}
      propertyPath: m_Layer
      value: 9
      objectReference: {fileID: 0}
    - target: {fileID: 1000012426281796, guid: e20295937dcf89f4187b8a37a845bf81, type: 2}
      propertyPath: m_Layer
      value: 9
      objectReference: {fileID: 0}
    - target: {fileID: 1000012403782342, guid: e20295937dcf89f4187b8a37a845bf81, type: 2}
      propertyPath: m_Layer
      value: 9
      objectReference: {fileID: 0}
    - target: {fileID: 1000014119592514, guid: e20295937dcf89f4187b8a37a845bf81, type: 2}
      propertyPath: m_Layer
      value: 9
      objectReference: {fileID: 0}
    - target: {fileID: 1000010997487664, guid: e20295937dcf89f4187b8a37a845bf81, type: 2}
      propertyPath: m_Layer
      value: 9
      objectReference: {fileID: 0}
    - target: {fileID: 1000013088287728, guid: e20295937dcf89f4187b8a37a845bf81, type: 2}
      propertyPath: m_Layer
      value: 9
      objectReference: {fileID: 0}
    - target: {fileID: 23000010074388434, guid: e20295937dcf89f4187b8a37a845bf81,
        type: 2}
      propertyPath: m_Materials.Array.data[0]
      value: 
      objectReference: {fileID: 2100000, guid: 2250cd24921728e4da3efa9f279fbb4e, type: 2}
    - target: {fileID: 23000012019404034, guid: e20295937dcf89f4187b8a37a845bf81,
        type: 2}
      propertyPath: m_Materials.Array.data[0]
      value: 
      objectReference: {fileID: 2100000, guid: 551b596cae6bf2345ab3bc1933ae1932, type: 2}
    - target: {fileID: 23000013099928210, guid: e20295937dcf89f4187b8a37a845bf81,
        type: 2}
      propertyPath: m_Materials.Array.data[0]
      value: 
      objectReference: {fileID: 2100000, guid: d23caf83e12393740af76598e281bf4d, type: 2}
    - target: {fileID: 23000010631511962, guid: e20295937dcf89f4187b8a37a845bf81,
        type: 2}
      propertyPath: m_Materials.Array.data[0]
      value: 
      objectReference: {fileID: 2100000, guid: 270d96405b2b65c49ad4c38a1db1c3e9, type: 2}
    - target: {fileID: 23000011238846522, guid: e20295937dcf89f4187b8a37a845bf81,
        type: 2}
      propertyPath: m_Materials.Array.data[0]
      value: 
      objectReference: {fileID: 2100000, guid: 6f7db8f3974339d43afa5bae24f233d4, type: 2}
    - target: {fileID: 23000011993042206, guid: e20295937dcf89f4187b8a37a845bf81,
        type: 2}
      propertyPath: m_Materials.Array.data[0]
      value: 
      objectReference: {fileID: 2100000, guid: 8355c782fcf80254fb64ffb26354d943, type: 2}
    - target: {fileID: 1000011849790374, guid: e20295937dcf89f4187b8a37a845bf81, type: 2}
      propertyPath: m_IsActive
      value: 1
      objectReference: {fileID: 0}
    - target: {fileID: 1000010767166688, guid: e20295937dcf89f4187b8a37a845bf81, type: 2}
      propertyPath: m_IsActive
      value: 1
      objectReference: {fileID: 0}
    - target: {fileID: 1000012426281796, guid: e20295937dcf89f4187b8a37a845bf81, type: 2}
      propertyPath: m_IsActive
      value: 1
      objectReference: {fileID: 0}
    - target: {fileID: 1000012403782342, guid: e20295937dcf89f4187b8a37a845bf81, type: 2}
      propertyPath: m_IsActive
      value: 1
      objectReference: {fileID: 0}
    - target: {fileID: 1000014119592514, guid: e20295937dcf89f4187b8a37a845bf81, type: 2}
      propertyPath: m_IsActive
      value: 1
      objectReference: {fileID: 0}
    - target: {fileID: 1000010997487664, guid: e20295937dcf89f4187b8a37a845bf81, type: 2}
      propertyPath: m_IsActive
      value: 1
      objectReference: {fileID: 0}
    m_RemovedComponents:
    - {fileID: 114000014017673422, guid: e20295937dcf89f4187b8a37a845bf81, type: 2}
  m_ParentPrefab: {fileID: 100100000, guid: e20295937dcf89f4187b8a37a845bf81, type: 2}
  m_RootGameObject: {fileID: 485533580}
  m_IsPrefabParent: 0
--- !u!1 &1652970871
GameObject:
  m_ObjectHideFlags: 0
  m_PrefabParentObject: {fileID: 1000011849790374, guid: e20295937dcf89f4187b8a37a845bf81,
    type: 2}
  m_PrefabInternal: {fileID: 1652970870}
  serializedVersion: 5
  m_Component:
  - component: {fileID: 1652970879}
  - component: {fileID: 1652970878}
  - component: {fileID: 1652970877}
  m_Layer: 9
  m_Name: Back
  m_TagString: Untagged
  m_Icon: {fileID: 0}
  m_NavMeshLayer: 0
  m_StaticEditorFlags: 0
  m_IsActive: 1
--- !u!1 &1652970872
GameObject:
  m_ObjectHideFlags: 0
  m_PrefabParentObject: {fileID: 1000010767166688, guid: e20295937dcf89f4187b8a37a845bf81,
    type: 2}
  m_PrefabInternal: {fileID: 1652970870}
  serializedVersion: 5
  m_Component:
  - component: {fileID: 1652970880}
  - component: {fileID: 1652970886}
  - component: {fileID: 1652970885}
  m_Layer: 9
  m_Name: Front
  m_TagString: Untagged
  m_Icon: {fileID: 0}
  m_NavMeshLayer: 0
  m_StaticEditorFlags: 0
  m_IsActive: 1
--- !u!1 &1652970873
GameObject:
  m_ObjectHideFlags: 0
  m_PrefabParentObject: {fileID: 1000012426281796, guid: e20295937dcf89f4187b8a37a845bf81,
    type: 2}
  m_PrefabInternal: {fileID: 1652970870}
  serializedVersion: 5
  m_Component:
  - component: {fileID: 1652970881}
  - component: {fileID: 1652970888}
  - component: {fileID: 1652970887}
  m_Layer: 9
  m_Name: Right
  m_TagString: Untagged
  m_Icon: {fileID: 0}
  m_NavMeshLayer: 0
  m_StaticEditorFlags: 0
  m_IsActive: 1
--- !u!1 &1652970874
GameObject:
  m_ObjectHideFlags: 0
  m_PrefabParentObject: {fileID: 1000012403782342, guid: e20295937dcf89f4187b8a37a845bf81,
    type: 2}
  m_PrefabInternal: {fileID: 1652970870}
  serializedVersion: 5
  m_Component:
  - component: {fileID: 1652970882}
  - component: {fileID: 1652970890}
  - component: {fileID: 1652970889}
  m_Layer: 9
  m_Name: Left
  m_TagString: Untagged
  m_Icon: {fileID: 0}
  m_NavMeshLayer: 0
  m_StaticEditorFlags: 0
  m_IsActive: 1
--- !u!1 &1652970875
GameObject:
  m_ObjectHideFlags: 0
  m_PrefabParentObject: {fileID: 1000010997487664, guid: e20295937dcf89f4187b8a37a845bf81,
    type: 2}
  m_PrefabInternal: {fileID: 1652970870}
  serializedVersion: 5
  m_Component:
  - component: {fileID: 1652970884}
  - component: {fileID: 1652970894}
  - component: {fileID: 1652970893}
  m_Layer: 9
  m_Name: Top
  m_TagString: Untagged
  m_Icon: {fileID: 0}
  m_NavMeshLayer: 0
  m_StaticEditorFlags: 0
  m_IsActive: 1
--- !u!1 &1652970876
GameObject:
  m_ObjectHideFlags: 0
  m_PrefabParentObject: {fileID: 1000014119592514, guid: e20295937dcf89f4187b8a37a845bf81,
    type: 2}
  m_PrefabInternal: {fileID: 1652970870}
  serializedVersion: 5
  m_Component:
  - component: {fileID: 1652970883}
  - component: {fileID: 1652970892}
  - component: {fileID: 1652970891}
  m_Layer: 9
  m_Name: Bottom
  m_TagString: Untagged
  m_Icon: {fileID: 0}
  m_NavMeshLayer: 0
  m_StaticEditorFlags: 0
  m_IsActive: 1
--- !u!23 &1652970877
MeshRenderer:
  m_ObjectHideFlags: 0
  m_PrefabParentObject: {fileID: 23000011993042206, guid: e20295937dcf89f4187b8a37a845bf81,
    type: 2}
  m_PrefabInternal: {fileID: 1652970870}
  m_GameObject: {fileID: 1652970871}
  m_Enabled: 1
  m_CastShadows: 1
  m_ReceiveShadows: 1
  m_DynamicOccludee: 1
  m_MotionVectors: 1
  m_LightProbeUsage: 1
  m_ReflectionProbeUsage: 1
  m_Materials:
  - {fileID: 2100000, guid: 8355c782fcf80254fb64ffb26354d943, type: 2}
  m_StaticBatchInfo:
    firstSubMesh: 0
    subMeshCount: 0
  m_StaticBatchRoot: {fileID: 0}
  m_ProbeAnchor: {fileID: 0}
  m_LightProbeVolumeOverride: {fileID: 0}
  m_ScaleInLightmap: 1
  m_PreserveUVs: 0
  m_IgnoreNormalsForChartDetection: 0
  m_ImportantGI: 0
  m_StitchLightmapSeams: 0
  m_SelectedEditorRenderState: 3
  m_MinimumChartSize: 4
  m_AutoUVMaxDistance: 0.5
  m_AutoUVMaxAngle: 89
  m_LightmapParameters: {fileID: 0}
  m_SortingLayerID: 0
  m_SortingLayer: 0
  m_SortingOrder: 0
--- !u!33 &1652970878
MeshFilter:
  m_ObjectHideFlags: 0
  m_PrefabParentObject: {fileID: 33000012453629146, guid: e20295937dcf89f4187b8a37a845bf81,
    type: 2}
  m_PrefabInternal: {fileID: 1652970870}
  m_GameObject: {fileID: 1652970871}
  m_Mesh: {fileID: 10210, guid: 0000000000000000e000000000000000, type: 0}
--- !u!4 &1652970879
Transform:
  m_ObjectHideFlags: 0
  m_PrefabParentObject: {fileID: 4000012630047384, guid: e20295937dcf89f4187b8a37a845bf81,
    type: 2}
  m_PrefabInternal: {fileID: 1652970870}
  m_GameObject: {fileID: 1652970871}
  m_LocalRotation: {x: 0, y: 1, z: 0, w: 0}
  m_LocalPosition: {x: 0, y: 0, z: -499}
  m_LocalScale: {x: 1000, y: 1000, z: 1000}
  m_Children: []
  m_Father: {fileID: 485533581}
  m_RootOrder: 5
  m_LocalEulerAnglesHint: {x: 0, y: 0, z: 0}
--- !u!4 &1652970880
Transform:
  m_ObjectHideFlags: 0
  m_PrefabParentObject: {fileID: 4000011982902760, guid: e20295937dcf89f4187b8a37a845bf81,
    type: 2}
  m_PrefabInternal: {fileID: 1652970870}
  m_GameObject: {fileID: 1652970872}
  m_LocalRotation: {x: 0, y: 0, z: 0, w: 1}
  m_LocalPosition: {x: 0, y: 0, z: 499}
  m_LocalScale: {x: 1000, y: 1000, z: 1000}
  m_Children: []
  m_Father: {fileID: 485533581}
  m_RootOrder: 4
  m_LocalEulerAnglesHint: {x: 0, y: 0, z: 0}
--- !u!4 &1652970881
Transform:
  m_ObjectHideFlags: 0
  m_PrefabParentObject: {fileID: 4000012463577500, guid: e20295937dcf89f4187b8a37a845bf81,
    type: 2}
  m_PrefabInternal: {fileID: 1652970870}
  m_GameObject: {fileID: 1652970873}
  m_LocalRotation: {x: 0, y: 0.7071068, z: 0, w: 0.7071068}
  m_LocalPosition: {x: 499, y: 0, z: 0}
  m_LocalScale: {x: 1000, y: 1000, z: 1000}
  m_Children: []
  m_Father: {fileID: 485533581}
  m_RootOrder: 3
  m_LocalEulerAnglesHint: {x: 0, y: 0, z: 0}
--- !u!4 &1652970882
Transform:
  m_ObjectHideFlags: 0
  m_PrefabParentObject: {fileID: 4000012357002480, guid: e20295937dcf89f4187b8a37a845bf81,
    type: 2}
  m_PrefabInternal: {fileID: 1652970870}
  m_GameObject: {fileID: 1652970874}
  m_LocalRotation: {x: 0, y: -0.7071068, z: 0, w: 0.7071068}
  m_LocalPosition: {x: -499, y: 0, z: 0}
  m_LocalScale: {x: 1000, y: 1000, z: 1000}
  m_Children: []
  m_Father: {fileID: 485533581}
  m_RootOrder: 2
  m_LocalEulerAnglesHint: {x: 0, y: 0, z: 0}
--- !u!4 &1652970883
Transform:
  m_ObjectHideFlags: 0
  m_PrefabParentObject: {fileID: 4000012685362062, guid: e20295937dcf89f4187b8a37a845bf81,
    type: 2}
  m_PrefabInternal: {fileID: 1652970870}
  m_GameObject: {fileID: 1652970876}
  m_LocalRotation: {x: 0.7071068, y: 0, z: 0, w: 0.7071068}
  m_LocalPosition: {x: 0, y: -499, z: 0}
  m_LocalScale: {x: 1000, y: 1000, z: 1000}
  m_Children: []
  m_Father: {fileID: 485533581}
  m_RootOrder: 1
  m_LocalEulerAnglesHint: {x: 0, y: 0, z: 0}
--- !u!4 &1652970884
Transform:
  m_ObjectHideFlags: 0
  m_PrefabParentObject: {fileID: 4000011469594028, guid: e20295937dcf89f4187b8a37a845bf81,
    type: 2}
  m_PrefabInternal: {fileID: 1652970870}
  m_GameObject: {fileID: 1652970875}
  m_LocalRotation: {x: -0.7071068, y: 0, z: 0, w: 0.7071068}
  m_LocalPosition: {x: 0, y: 499, z: 0}
  m_LocalScale: {x: 1000, y: 1000, z: 1000}
  m_Children: []
  m_Father: {fileID: 485533581}
  m_RootOrder: 0
  m_LocalEulerAnglesHint: {x: 0, y: 0, z: 0}
--- !u!23 &1652970885
MeshRenderer:
  m_ObjectHideFlags: 0
  m_PrefabParentObject: {fileID: 23000011238846522, guid: e20295937dcf89f4187b8a37a845bf81,
    type: 2}
  m_PrefabInternal: {fileID: 1652970870}
  m_GameObject: {fileID: 1652970872}
  m_Enabled: 1
  m_CastShadows: 1
  m_ReceiveShadows: 1
  m_DynamicOccludee: 1
  m_MotionVectors: 1
  m_LightProbeUsage: 1
  m_ReflectionProbeUsage: 1
  m_Materials:
  - {fileID: 2100000, guid: 6f7db8f3974339d43afa5bae24f233d4, type: 2}
  m_StaticBatchInfo:
    firstSubMesh: 0
    subMeshCount: 0
  m_StaticBatchRoot: {fileID: 0}
  m_ProbeAnchor: {fileID: 0}
  m_LightProbeVolumeOverride: {fileID: 0}
  m_ScaleInLightmap: 1
  m_PreserveUVs: 0
  m_IgnoreNormalsForChartDetection: 0
  m_ImportantGI: 0
  m_StitchLightmapSeams: 0
  m_SelectedEditorRenderState: 3
  m_MinimumChartSize: 4
  m_AutoUVMaxDistance: 0.5
  m_AutoUVMaxAngle: 89
  m_LightmapParameters: {fileID: 0}
  m_SortingLayerID: 0
  m_SortingLayer: 0
  m_SortingOrder: 0
--- !u!33 &1652970886
MeshFilter:
  m_ObjectHideFlags: 0
  m_PrefabParentObject: {fileID: 33000010803628946, guid: e20295937dcf89f4187b8a37a845bf81,
    type: 2}
  m_PrefabInternal: {fileID: 1652970870}
  m_GameObject: {fileID: 1652970872}
  m_Mesh: {fileID: 10210, guid: 0000000000000000e000000000000000, type: 0}
--- !u!23 &1652970887
MeshRenderer:
  m_ObjectHideFlags: 0
  m_PrefabParentObject: {fileID: 23000010631511962, guid: e20295937dcf89f4187b8a37a845bf81,
    type: 2}
  m_PrefabInternal: {fileID: 1652970870}
  m_GameObject: {fileID: 1652970873}
  m_Enabled: 1
  m_CastShadows: 1
  m_ReceiveShadows: 1
  m_DynamicOccludee: 1
  m_MotionVectors: 1
  m_LightProbeUsage: 1
  m_ReflectionProbeUsage: 1
  m_Materials:
  - {fileID: 2100000, guid: 270d96405b2b65c49ad4c38a1db1c3e9, type: 2}
  m_StaticBatchInfo:
    firstSubMesh: 0
    subMeshCount: 0
  m_StaticBatchRoot: {fileID: 0}
  m_ProbeAnchor: {fileID: 0}
  m_LightProbeVolumeOverride: {fileID: 0}
  m_ScaleInLightmap: 1
  m_PreserveUVs: 0
  m_IgnoreNormalsForChartDetection: 0
  m_ImportantGI: 0
  m_StitchLightmapSeams: 0
  m_SelectedEditorRenderState: 3
  m_MinimumChartSize: 4
  m_AutoUVMaxDistance: 0.5
  m_AutoUVMaxAngle: 89
  m_LightmapParameters: {fileID: 0}
  m_SortingLayerID: 0
  m_SortingLayer: 0
  m_SortingOrder: 0
--- !u!33 &1652970888
MeshFilter:
  m_ObjectHideFlags: 0
  m_PrefabParentObject: {fileID: 33000013744237234, guid: e20295937dcf89f4187b8a37a845bf81,
    type: 2}
  m_PrefabInternal: {fileID: 1652970870}
  m_GameObject: {fileID: 1652970873}
  m_Mesh: {fileID: 10210, guid: 0000000000000000e000000000000000, type: 0}
--- !u!23 &1652970889
MeshRenderer:
  m_ObjectHideFlags: 0
  m_PrefabParentObject: {fileID: 23000013099928210, guid: e20295937dcf89f4187b8a37a845bf81,
    type: 2}
  m_PrefabInternal: {fileID: 1652970870}
  m_GameObject: {fileID: 1652970874}
  m_Enabled: 1
  m_CastShadows: 1
  m_ReceiveShadows: 1
  m_DynamicOccludee: 1
  m_MotionVectors: 1
  m_LightProbeUsage: 1
  m_ReflectionProbeUsage: 1
  m_Materials:
  - {fileID: 2100000, guid: d23caf83e12393740af76598e281bf4d, type: 2}
  m_StaticBatchInfo:
    firstSubMesh: 0
    subMeshCount: 0
  m_StaticBatchRoot: {fileID: 0}
  m_ProbeAnchor: {fileID: 0}
  m_LightProbeVolumeOverride: {fileID: 0}
  m_ScaleInLightmap: 1
  m_PreserveUVs: 0
  m_IgnoreNormalsForChartDetection: 0
  m_ImportantGI: 0
  m_StitchLightmapSeams: 0
  m_SelectedEditorRenderState: 3
  m_MinimumChartSize: 4
  m_AutoUVMaxDistance: 0.5
  m_AutoUVMaxAngle: 89
  m_LightmapParameters: {fileID: 0}
  m_SortingLayerID: 0
  m_SortingLayer: 0
  m_SortingOrder: 0
--- !u!33 &1652970890
MeshFilter:
  m_ObjectHideFlags: 0
  m_PrefabParentObject: {fileID: 33000012490991614, guid: e20295937dcf89f4187b8a37a845bf81,
    type: 2}
  m_PrefabInternal: {fileID: 1652970870}
  m_GameObject: {fileID: 1652970874}
  m_Mesh: {fileID: 10210, guid: 0000000000000000e000000000000000, type: 0}
--- !u!23 &1652970891
MeshRenderer:
  m_ObjectHideFlags: 0
  m_PrefabParentObject: {fileID: 23000012019404034, guid: e20295937dcf89f4187b8a37a845bf81,
    type: 2}
  m_PrefabInternal: {fileID: 1652970870}
  m_GameObject: {fileID: 1652970876}
  m_Enabled: 1
  m_CastShadows: 1
  m_ReceiveShadows: 1
  m_DynamicOccludee: 1
  m_MotionVectors: 1
  m_LightProbeUsage: 1
  m_ReflectionProbeUsage: 1
  m_Materials:
  - {fileID: 2100000, guid: 551b596cae6bf2345ab3bc1933ae1932, type: 2}
  m_StaticBatchInfo:
    firstSubMesh: 0
    subMeshCount: 0
  m_StaticBatchRoot: {fileID: 0}
  m_ProbeAnchor: {fileID: 0}
  m_LightProbeVolumeOverride: {fileID: 0}
  m_ScaleInLightmap: 1
  m_PreserveUVs: 0
  m_IgnoreNormalsForChartDetection: 0
  m_ImportantGI: 0
  m_StitchLightmapSeams: 0
  m_SelectedEditorRenderState: 3
  m_MinimumChartSize: 4
  m_AutoUVMaxDistance: 0.5
  m_AutoUVMaxAngle: 89
  m_LightmapParameters: {fileID: 0}
  m_SortingLayerID: 0
  m_SortingLayer: 0
  m_SortingOrder: 0
--- !u!33 &1652970892
MeshFilter:
  m_ObjectHideFlags: 0
  m_PrefabParentObject: {fileID: 33000013284011270, guid: e20295937dcf89f4187b8a37a845bf81,
    type: 2}
  m_PrefabInternal: {fileID: 1652970870}
  m_GameObject: {fileID: 1652970876}
  m_Mesh: {fileID: 10210, guid: 0000000000000000e000000000000000, type: 0}
--- !u!23 &1652970893
MeshRenderer:
  m_ObjectHideFlags: 0
  m_PrefabParentObject: {fileID: 23000010074388434, guid: e20295937dcf89f4187b8a37a845bf81,
    type: 2}
  m_PrefabInternal: {fileID: 1652970870}
  m_GameObject: {fileID: 1652970875}
  m_Enabled: 1
  m_CastShadows: 1
  m_ReceiveShadows: 1
  m_DynamicOccludee: 1
  m_MotionVectors: 1
  m_LightProbeUsage: 1
  m_ReflectionProbeUsage: 1
  m_Materials:
  - {fileID: 2100000, guid: 2250cd24921728e4da3efa9f279fbb4e, type: 2}
  m_StaticBatchInfo:
    firstSubMesh: 0
    subMeshCount: 0
  m_StaticBatchRoot: {fileID: 0}
  m_ProbeAnchor: {fileID: 0}
  m_LightProbeVolumeOverride: {fileID: 0}
  m_ScaleInLightmap: 1
  m_PreserveUVs: 0
  m_IgnoreNormalsForChartDetection: 0
  m_ImportantGI: 0
  m_StitchLightmapSeams: 0
  m_SelectedEditorRenderState: 3
  m_MinimumChartSize: 4
  m_AutoUVMaxDistance: 0.5
  m_AutoUVMaxAngle: 89
  m_LightmapParameters: {fileID: 0}
  m_SortingLayerID: 0
  m_SortingLayer: 0
  m_SortingOrder: 0
--- !u!33 &1652970894
MeshFilter:
  m_ObjectHideFlags: 0
  m_PrefabParentObject: {fileID: 33000011403583486, guid: e20295937dcf89f4187b8a37a845bf81,
    type: 2}
  m_PrefabInternal: {fileID: 1652970870}
  m_GameObject: {fileID: 1652970875}
  m_Mesh: {fileID: 10210, guid: 0000000000000000e000000000000000, type: 0}
--- !u!1 &1843547130
GameObject:
  m_ObjectHideFlags: 0
  m_PrefabParentObject: {fileID: 0}
  m_PrefabInternal: {fileID: 0}
  serializedVersion: 5
  m_Component:
  - component: {fileID: 1843547136}
  - component: {fileID: 1843547135}
  - component: {fileID: 1843547134}
  - component: {fileID: 1843547133}
  - component: {fileID: 1843547132}
  m_Layer: 0
  m_Name: CameraLeft
  m_TagString: Untagged
  m_Icon: {fileID: 0}
  m_NavMeshLayer: 0
  m_StaticEditorFlags: 0
  m_IsActive: 1
--- !u!81 &1843547132
AudioListener:
  m_ObjectHideFlags: 0
  m_PrefabParentObject: {fileID: 0}
  m_PrefabInternal: {fileID: 0}
  m_GameObject: {fileID: 1843547130}
  m_Enabled: 1
--- !u!92 &1843547133
Behaviour:
  m_ObjectHideFlags: 0
  m_PrefabParentObject: {fileID: 0}
  m_PrefabInternal: {fileID: 0}
  m_GameObject: {fileID: 1843547130}
  m_Enabled: 1
--- !u!124 &1843547134
Behaviour:
  m_ObjectHideFlags: 0
  m_PrefabParentObject: {fileID: 0}
  m_PrefabInternal: {fileID: 0}
  m_GameObject: {fileID: 1843547130}
  m_Enabled: 1
--- !u!20 &1843547135
Camera:
  m_ObjectHideFlags: 0
  m_PrefabParentObject: {fileID: 0}
  m_PrefabInternal: {fileID: 0}
  m_GameObject: {fileID: 1843547130}
  m_Enabled: 1
  serializedVersion: 2
  m_ClearFlags: 1
  m_BackGroundColor: {r: 0.19215687, g: 0.3019608, b: 0.4745098, a: 0.019607844}
  m_NormalizedViewPortRect:
    serializedVersion: 2
    x: 0
    y: 0
    width: 1
    height: 1
  near clip plane: 0.3
  far clip plane: 1000
  field of view: 60
  orthographic: 0
  orthographic size: 5
  m_Depth: 0
  m_CullingMask:
    serializedVersion: 2
    m_Bits: 512
  m_RenderingPath: -1
  m_TargetTexture: {fileID: 0}
  m_TargetDisplay: 0
  m_TargetEye: 3
  m_HDR: 0
  m_AllowMSAA: 1
  m_AllowDynamicResolution: 0
  m_ForceIntoRT: 0
  m_OcclusionCulling: 1
  m_StereoConvergence: 10
  m_StereoSeparation: 0.022
--- !u!4 &1843547136
Transform:
  m_ObjectHideFlags: 0
  m_PrefabParentObject: {fileID: 0}
  m_PrefabInternal: {fileID: 0}
  m_GameObject: {fileID: 1843547130}
  m_LocalRotation: {x: 0, y: 0, z: 0, w: 1}
  m_LocalPosition: {x: 0, y: 0, z: 0}
  m_LocalScale: {x: 1, y: 1, z: 1}
  m_Children: []
  m_Father: {fileID: 0}
  m_RootOrder: 0
  m_LocalEulerAnglesHint: {x: 0, y: 0, z: 0}
--- !u!1 &1979831050
GameObject:
  m_ObjectHideFlags: 0
  m_PrefabParentObject: {fileID: 1000013088287728, guid: e20295937dcf89f4187b8a37a845bf81,
    type: 2}
  m_PrefabInternal: {fileID: 1457604494}
  serializedVersion: 5
  m_Component:
  - component: {fileID: 1979831051}
  m_Layer: 10
  m_Name: Cubemap_Right
  m_TagString: Untagged
  m_Icon: {fileID: 0}
  m_NavMeshLayer: 0
  m_StaticEditorFlags: 0
  m_IsActive: 1
--- !u!4 &1979831051
Transform:
  m_ObjectHideFlags: 0
  m_PrefabParentObject: {fileID: 4000013629204522, guid: e20295937dcf89f4187b8a37a845bf81,
    type: 2}
  m_PrefabInternal: {fileID: 1457604494}
  m_GameObject: {fileID: 1979831050}
  m_LocalRotation: {x: 0, y: 0, z: 0, w: 1}
  m_LocalPosition: {x: 0, y: 0, z: 0}
  m_LocalScale: {x: 1, y: 1, z: 1}
  m_Children:
  - {fileID: 1457604508}
  - {fileID: 1457604507}
  - {fileID: 1457604506}
  - {fileID: 1457604505}
  - {fileID: 1457604504}
  - {fileID: 1457604503}
  m_Father: {fileID: 0}
  m_RootOrder: 3
  m_LocalEulerAnglesHint: {x: 0, y: 0, z: 0}
--- !u!1001 &2020816282
Prefab:
  m_ObjectHideFlags: 0
  serializedVersion: 2
  m_Modification:
    m_TransformParent: {fileID: 0}
    m_Modifications:
    - target: {fileID: 11400000, guid: f0082db35c5d5614f9e8c63a7f86aa4e, type: 2}
      propertyPath: m_TargetMaterial.Array.size
      value: 12
      objectReference: {fileID: 0}
    - target: {fileID: 400000, guid: f0082db35c5d5614f9e8c63a7f86aa4e, type: 2}
      propertyPath: m_LocalPosition.x
      value: 0
      objectReference: {fileID: 0}
    - target: {fileID: 400000, guid: f0082db35c5d5614f9e8c63a7f86aa4e, type: 2}
      propertyPath: m_LocalPosition.y
      value: 5.75
      objectReference: {fileID: 0}
    - target: {fileID: 400000, guid: f0082db35c5d5614f9e8c63a7f86aa4e, type: 2}
      propertyPath: m_LocalPosition.z
      value: 6
      objectReference: {fileID: 0}
    - target: {fileID: 400000, guid: f0082db35c5d5614f9e8c63a7f86aa4e, type: 2}
      propertyPath: m_LocalRotation.x
      value: 0
      objectReference: {fileID: 0}
    - target: {fileID: 400000, guid: f0082db35c5d5614f9e8c63a7f86aa4e, type: 2}
      propertyPath: m_LocalRotation.y
      value: 0
      objectReference: {fileID: 0}
    - target: {fileID: 400000, guid: f0082db35c5d5614f9e8c63a7f86aa4e, type: 2}
      propertyPath: m_LocalRotation.z
      value: 0
      objectReference: {fileID: 0}
    - target: {fileID: 400000, guid: f0082db35c5d5614f9e8c63a7f86aa4e, type: 2}
      propertyPath: m_LocalRotation.w
      value: 1
      objectReference: {fileID: 0}
    - target: {fileID: 400000, guid: f0082db35c5d5614f9e8c63a7f86aa4e, type: 2}
      propertyPath: m_RootOrder
      value: 4
      objectReference: {fileID: 0}
    - target: {fileID: 11400000, guid: f0082db35c5d5614f9e8c63a7f86aa4e, type: 2}
      propertyPath: m_TargetMaterial.Array.data[0]
      value: 
      objectReference: {fileID: 1457604500}
    - target: {fileID: 11400000, guid: f0082db35c5d5614f9e8c63a7f86aa4e, type: 2}
      propertyPath: m_TargetMaterial.Array.data[1]
      value: 
      objectReference: {fileID: 1457604499}
    - target: {fileID: 11400000, guid: f0082db35c5d5614f9e8c63a7f86aa4e, type: 2}
      propertyPath: m_TargetMaterial.Array.data[2]
      value: 
      objectReference: {fileID: 1457604498}
    - target: {fileID: 11400000, guid: f0082db35c5d5614f9e8c63a7f86aa4e, type: 2}
      propertyPath: m_TargetMaterial.Array.data[3]
      value: 
      objectReference: {fileID: 1457604497}
    - target: {fileID: 11400000, guid: f0082db35c5d5614f9e8c63a7f86aa4e, type: 2}
      propertyPath: m_TargetMaterial.Array.data[4]
      value: 
      objectReference: {fileID: 1457604496}
    - target: {fileID: 11400000, guid: f0082db35c5d5614f9e8c63a7f86aa4e, type: 2}
      propertyPath: m_TargetMaterial.Array.data[5]
      value: 
      objectReference: {fileID: 1457604495}
    - target: {fileID: 11400000, guid: f0082db35c5d5614f9e8c63a7f86aa4e, type: 2}
      propertyPath: m_TargetMaterial.Array.data[6]
      value: 
      objectReference: {fileID: 1652970875}
    - target: {fileID: 11400000, guid: f0082db35c5d5614f9e8c63a7f86aa4e, type: 2}
      propertyPath: m_TargetMaterial.Array.data[7]
      value: 
      objectReference: {fileID: 1652970876}
    - target: {fileID: 11400000, guid: f0082db35c5d5614f9e8c63a7f86aa4e, type: 2}
      propertyPath: m_TargetMaterial.Array.data[8]
      value: 
      objectReference: {fileID: 1652970874}
    - target: {fileID: 11400000, guid: f0082db35c5d5614f9e8c63a7f86aa4e, type: 2}
      propertyPath: m_TargetMaterial.Array.data[9]
      value: 
      objectReference: {fileID: 1652970873}
    - target: {fileID: 11400000, guid: f0082db35c5d5614f9e8c63a7f86aa4e, type: 2}
      propertyPath: m_TargetMaterial.Array.data[10]
      value: 
      objectReference: {fileID: 1652970872}
    - target: {fileID: 11400000, guid: f0082db35c5d5614f9e8c63a7f86aa4e, type: 2}
      propertyPath: m_TargetMaterial.Array.data[11]
      value: 
      objectReference: {fileID: 1652970871}
    - target: {fileID: 11400000, guid: f0082db35c5d5614f9e8c63a7f86aa4e, type: 2}
      propertyPath: m_objResize.Array.data[0]
      value: 
      objectReference: {fileID: 0}
    - target: {fileID: 11400000, guid: f0082db35c5d5614f9e8c63a7f86aa4e, type: 2}
      propertyPath: m_strFileName
      value: EasyMovieTexture.mp4
      objectReference: {fileID: 0}
    m_RemovedComponents:
    - {fileID: 2300000, guid: f0082db35c5d5614f9e8c63a7f86aa4e, type: 2}
    - {fileID: 3300000, guid: f0082db35c5d5614f9e8c63a7f86aa4e, type: 2}
  m_ParentPrefab: {fileID: 100100000, guid: f0082db35c5d5614f9e8c63a7f86aa4e, type: 2}
  m_RootGameObject: {fileID: 1482323620}
  m_IsPrefabParent: 0
